﻿<?xml version="1.0" encoding="utf-8"?>
<svg version="1.1" xmlns:xlink="http://www.w3.org/1999/xlink" width="140px" height="149px" xmlns="http://www.w3.org/2000/svg">
  <g transform="matrix(1 0 0 1 -526 -625 )">
    <path d="M 139.0703125 107.724283854167  C 139.690104166667 112.606879340278  140 117.796657986111  140 123.293619791667  C 140 130.342664930556  137.721354166667 136.389322916667  133.1640625 141.43359375  C 128.606770833333 146.477864583333  123.119791666667 149  116.703125 149  L 23.296875 149  C 16.8802083333333 149  11.3932291666667 146.477864583333  6.8359375 141.43359375  C 2.27864583333333 136.389322916667  0 130.342664930556  0 123.293619791667  C 0 117.796657986111  0.309895833333334 112.606879340278  0.929687500000001 107.724283854167  C 1.54947916666667 102.841688368056  2.69791666666667 97.9267578125  4.375 92.9794921875  C 6.05208333333333 88.0322265625  8.18489583333333 83.7963324652778  10.7734375 80.2718098958333  C 13.3619791666667 76.7472873263889  16.7890625 73.8694661458333  21.0546875 71.6383463541667  C 25.3203125 69.4072265625  30.2239583333333 68.2916666666667  35.765625 68.2916666666667  C 45.3177083333333 76.5694444444444  56.7291666666667 80.7083333333333  70 80.7083333333333  C 83.2708333333334 80.7083333333333  94.6822916666667 76.5694444444444  104.234375 68.2916666666667  C 109.776041666667 68.2916666666667  114.6796875 69.4072265625  118.9453125 71.6383463541667  C 123.2109375 73.8694661458333  126.638020833333 76.7472873263889  129.2265625 80.2718098958333  C 131.815104166667 83.7963324652778  133.947916666667 88.0322265625  135.625 92.9794921875  C 137.302083333333 97.9267578125  138.450520833333 102.841688368056  139.0703125 107.724283854167  Z M 99.6953125 10.9130859375  C 107.8984375 18.1884765625  112 26.9674479166667  112 37.25  C 112 47.5325520833333  107.8984375 56.3115234375  99.6953125 63.5869140625  C 91.4921875 70.8623046875  81.59375 74.5  70 74.5  C 58.40625 74.5  48.5078125 70.8623046875  40.3046875 63.5869140625  C 32.1015625 56.3115234375  28 47.5325520833333  28 37.25  C 28 26.9674479166667  32.1015625 18.1884765625  40.3046875 10.9130859375  C 48.5078125 3.6376953125  58.40625 0  70 0  C 81.59375 0  91.4921875 3.6376953125  99.6953125 10.9130859375  Z " fill-rule="nonzero" fill="#000000" stroke="none" transform="matrix(1 0 0 1 526 625 )" />
  </g>
</svg>