﻿<?xml version="1.0" encoding="utf-8"?>
<svg version="1.1" xmlns:xlink="http://www.w3.org/1999/xlink" width="10px" height="270px" preserveAspectRatio="xMidYMin meet" viewBox="866 85  8 270" xmlns="http://www.w3.org/2000/svg">
  <path d="M 870 85  L 870 345  A 5 5 0 0 1 865 350 L 728 350  A 5 5 0 0 0 723 355 L 723 363  " stroke-width="2" stroke="#0099cc" fill="none" />
</svg>