﻿<?xml version="1.0" encoding="utf-8"?>
<svg version="1.1" xmlns:xlink="http://www.w3.org/1999/xlink" width="10px" height="30px" preserveAspectRatio="xMidYMin meet" viewBox="719 423  8 30" xmlns="http://www.w3.org/2000/svg">
  <path d="M 723 423  L 723 448  " stroke-width="2" stroke="#0099cc" fill="none" />
</svg>