﻿<?xml version="1.0" encoding="utf-8"?>
<svg version="1.1" xmlns:xlink="http://www.w3.org/1999/xlink" width="10px" height="58px" preserveAspectRatio="xMidYMin meet" viewBox="216 305  8 58" xmlns="http://www.w3.org/2000/svg">
  <path d="M 870 85  L 870 305  A 5 5 0 0 1 865 310 L 225 310  A 5 5 0 0 0 220 315 L 220 363  " stroke-width="2" stroke="#0099cc" fill="none" />
</svg>