﻿<?xml version="1.0" encoding="utf-8"?>
<svg version="1.1" xmlns:xlink="http://www.w3.org/1999/xlink" width="140px" height="28px" xmlns="http://www.w3.org/2000/svg">
  <g transform="matrix(1 0 0 1 -53 -1028 )">
    <path d="M 0 23  L 0 5  C 0 2.20000000000005  2.2 0  5 0  L 59 0  L 135 0  C 137.8 0  140 2.20000000000005  140 5  L 140 23  C 140 25.8  137.8 28  135 28  L 5 28  C 2.2 28  0 25.8  0 23  Z " fill-rule="nonzero" fill="#7f7f7f" stroke="none" transform="matrix(1 0 0 1 53 1028 )" />
  </g>
</svg>